id;name;time;day_of_week;band_id;room_id
1;Math;1970-01-01T08:20:00;MONDAY;1;1
2;Biology;1970-01-01T09:40:00;MONDAY;1;2
3;Chemistry;1970-01-01T10:30:00;MONDAY;1;3
4;Gym;1970-01-01T08:20:00;TUESDAY;1;4
5;Physics;1970-01-01T09:40:00;TUESDAY;1;5
6;Math;1970-01-01T10:30:00;TUESDAY;1;6
7;Biology;1970-01-01T10:30:00;THURSDAY;1;7
8;Math;1970-01-01T11:20:00;THURSDAY;1;8
9;Literature;1970-01-01T12:40:00;THURSDAY;1;9
10;Art;1970-01-01T14:50:00;THURSDAY;1;10
