{
    "name": "Lesson",
    "fields": [
        {
            "fieldName": "name",
            "fieldType": "String",
            "fieldValidateRules": [
                "required"
            ]
        },
        {
            "fieldName": "time",
            "fieldType": "Instant",
            "fieldValidateRules": [
                "required"
            ]
        },
        {
            "fieldName": "dayOfWeek",
            "fieldType": "DayOfWeek",
            "fieldValues": "MONDAY,TUESDAY,WEDNESDAY,THURSDAY,FRIDAY,SATURDAY,SUNDAY"
        }
    ],
    "relationships": [
        {
            "relationshipType": "one-to-one",
            "otherEntityName": "room",
            "otherEntityRelationshipName": "lesson",
            "relationshipName": "room",
            "otherEntityField": "id",
            "ownerSide": true
        },
        {
            "relationshipType": "many-to-one",
            "otherEntityName": "band",
            "otherEntityRelationshipName": "lesson",
            "relationshipName": "band",
            "otherEntityField": "id"
        }
    ],
    "changelogDate": "20200319172536",
    "entityTableName": "lesson",
    "dto": "mapstruct",
    "pagination": "no",
    "service": "serviceClass",
    "jpaMetamodelFiltering": true,
    "fluentMethods": true,
    "clientRootFolder": "",
    "applications": "*",
    "readOnly": false,
    "embedded": false
}